{
  "items": [
    {
      "external_urls": {
        "spotify": "https://open.spotify.com/artist/1mYsTxnqsietFxj1OgoGbG"
      },
      "followers": {
        "href": null,
        "total": 17622282
      },
      "genres": [
        "desi pop",
        "filmi",
        "modern bollywood"
      ],
      "href": "https://api.spotify.com/v1/artists/1mYsTxnqsietFxj1OgoGbG",
      "id": "1mYsTxnqsietFxj1OgoGbG",
      "images": [
        {
          "height": 640,
          "url": "https://i.scdn.co/image/ab6761610000e5ebb19af0ea736c6228d6eb539c",
          "width": 640
        },
        {
          "height": 320,
          "url": "https://i.scdn.co/image/ab67616100005174b19af0ea736c6228d6eb539c",
          "width": 320
        },
        {
          "height": 160,
          "url": "https://i.scdn.co/image/ab6761610000f178b19af0ea736c6228d6eb539c",
          "width": 160
        }
      ],
      "name": "A.R. Rahman",
      "popularity": 81,
      "type": "artist",
      "uri": "spotify:artist:1mYsTxnqsietFxj1OgoGbG"
    },
    {
      "external_urls": {
        "spotify": "https://open.spotify.com/artist/2ae6PxICSOZHvjqiCcgon8"
      },
      "followers": {
        "href": null,
        "total": 3034525
      },
      "genres": [
        "filmi"
      ],
      "href": "https://api.spotify.com/v1/artists/2ae6PxICSOZHvjqiCcgon8",
      "id": "2ae6PxICSOZHvjqiCcgon8",
      "images": [
        {
          "height": 640,
          "url": "https://i.scdn.co/image/ab6761610000e5ebc4ab3514db806520757ac706",
          "width": 640
        },
        {
          "height": 320,
          "url": "https://i.scdn.co/image/ab67616100005174c4ab3514db806520757ac706",
          "width": 320
        },
        {
          "height": 160,
          "url": "https://i.scdn.co/image/ab6761610000f178c4ab3514db806520757ac706",
          "width": 160
        }
      ],
      "name": "S. P. Balasubrahmanyam",
      "popularity": 75,
      "type": "artist",
      "uri": "spotify:artist:2ae6PxICSOZHvjqiCcgon8"
    },
    {
      "external_urls": {
        "spotify": "https://open.spotify.com/artist/4zCH9qm4R2DADamUHMCa6O"
      },
      "followers": {
        "href": null,
        "total": 7773579
      },
      "genres": [
        "desi hip hop",
        "filmi",
        "tamil hip hop"
      ],
      "href": "https://api.spotify.com/v1/artists/4zCH9qm4R2DADamUHMCa6O",
      "id": "4zCH9qm4R2DADamUHMCa6O",
      "images": [
        {
          "height": 640,
          "url": "https://i.scdn.co/image/ab6761610000e5eb53defb703e917e62b55ee8ed",
          "width": 640
        },
        {
          "height": 320,
          "url": "https://i.scdn.co/image/ab6761610000517453defb703e917e62b55ee8ed",
          "width": 320
        },
        {
          "height": 160,
          "url": "https://i.scdn.co/image/ab6761610000f17853defb703e917e62b55ee8ed",
          "width": 160
        }
      ],
      "name": "Anirudh Ravichander",
      "popularity": 79,
      "type": "artist",
      "uri": "spotify:artist:4zCH9qm4R2DADamUHMCa6O"
    },
    {
      "external_urls": {
        "spotify": "https://open.spotify.com/artist/2wPsNCwhEGb0KvChZ5DD52"
      },
      "followers": {
        "href": null,
        "total": 2085682
      },
      "genres": [
        "filmi",
        "mollywood"
      ],
      "href": "https://api.spotify.com/v1/artists/2wPsNCwhEGb0KvChZ5DD52",
      "id": "2wPsNCwhEGb0KvChZ5DD52",
      "images": [
        {
          "height": 640,
          "url": "https://i.scdn.co/image/ab6761610000e5ebdd746a334ae236bb7a95c1d5",
          "width": 640
        },
        {
          "height": 320,
          "url": "https://i.scdn.co/image/ab67616100005174dd746a334ae236bb7a95c1d5",
          "width": 320
        },
        {
          "height": 160,
          "url": "https://i.scdn.co/image/ab6761610000f178dd746a334ae236bb7a95c1d5",
          "width": 160
        }
      ],
      "name": "K. J. Yesudas",
      "popularity": 65,
      "type": "artist",
      "uri": "spotify:artist:2wPsNCwhEGb0KvChZ5DD52"
    },
    {
      "external_urls": {
        "spotify": "https://open.spotify.com/artist/06HL4z0CvFAxyc27GXpf02"
      },
      "followers": {
        "href": null,
        "total": 48785228
      },
      "genres": [
        "pop"
      ],
      "href": "https://api.spotify.com/v1/artists/06HL4z0CvFAxyc27GXpf02",
      "id": "06HL4z0CvFAxyc27GXpf02",
      "images": [
        {
          "height": 640,
          "url": "https://i.scdn.co/image/ab6761610000e5eb9e3acf1eaf3b8846e836f441",
          "width": 640
        },
        {
          "height": 320,
          "url": "https://i.scdn.co/image/ab676161000051749e3acf1eaf3b8846e836f441",
          "width": 320
        },
        {
          "height": 160,
          "url": "https://i.scdn.co/image/ab6761610000f1789e3acf1eaf3b8846e836f441",
          "width": 160
        }
      ],
      "name": "Taylor Swift",
      "popularity": 98,
      "type": "artist",
      "uri": "spotify:artist:06HL4z0CvFAxyc27GXpf02"
    }
  ],
  "total": 43,
  "limit": 5,
  "offset": 0,
  "href": "https://api.spotify.com/v1/me/top/artists?limit=5&offset=0",
  "previous": null,
  "next": "https://api.spotify.com/v1/me/top/artists?limit=5&offset=5"
}