{
  "items": [
    {
      "external_urls": {
        "spotify": "https://open.spotify.com/artist/1mYsTxnqsietFxj1OgoGbG"
      },
      "followers": {
        "href": null,
        "total": 17622282
      },
      "genres": [
        "desi pop",
        "filmi",
        "modern bollywood"
      ],
      "href": "https://api.spotify.com/v1/artists/1mYsTxnqsietFxj1OgoGbG",
      "id": "1mYsTxnqsietFxj1OgoGbG",
      "images": [
        {
          "height": 640,
          "url": "https://i.scdn.co/image/ab6761610000e5ebb19af0ea736c6228d6eb539c",
          "width": 640
        },
        {
          "height": 320,
          "url": "https://i.scdn.co/image/ab67616100005174b19af0ea736c6228d6eb539c",
          "width": 320
        },
        {
          "height": 160,
          "url": "https://i.scdn.co/image/ab6761610000f178b19af0ea736c6228d6eb539c",
          "width": 160
        }
      ],
      "name": "A.R. Rahman",
      "popularity": 81,
      "type": "artist",
      "uri": "spotify:artist:1mYsTxnqsietFxj1OgoGbG"
    }
  ],
  "total": 43,
  "limit": 5,
  "offset": 0,
  "href": "https://api.spotify.com/v1/me/top/artists?limit=5&offset=0",
  "previous": null,
  "next": "https://api.spotify.com/v1/me/top/artists?limit=5&offset=5"
}