{
  "items": [
    {
      "album": {
        "album_type": "COMPILATION",
        "artists": [
          {
            "external_urls": {
              "spotify": "https://open.spotify.com/artist/0LyfQWJT6nXafLPZqxe9Of"
            },
            "href": "https://api.spotify.com/v1/artists/0LyfQWJT6nXafLPZqxe9Of",
            "id": "0LyfQWJT6nXafLPZqxe9Of",
            "name": "Various Artists",
            "type": "artist",
            "uri": "spotify:artist:0LyfQWJT6nXafLPZqxe9Of"
          }
        ],
        "available_markets": [
          "AD",
          "AE",
          "AR",
          "AT",
          "AU",
          "BE",
          "BG",
          "BH",
          "BO",
          "BR",
          "CA",
          "CH",
          "CL",
          "CO",
          "CR",
          "CY",
          "CZ",
          "DE",
          "DK",
          "DO",
          "DZ",
          "EC",
          "EE",
          "EG",
          "ES",
          "FI",
          "FR",
          "GB",
          "GR",
          "GT",
          "HK",
          "HN",
          "HU",
          "ID",
          "IE",
          "IL",
          "IS",
          "IT",
          "JO",
          "JP",
          "KW",
          "LB",
          "LI",
          "LT",
          "LU",
          "LV",
          "MA",
          "MC",
          "MT",
          "MX",
          "MY",
          "NI",
          "NL",
          "NO",
          "NZ",
          "OM",
          "PA",
          "PE",
          "PH",
          "PL",
          "PS",
          "PT",
          "PY",
          "QA",
          "RO",
          "SA",
          "SE",
          "SG",
          "SK",
          "SV",
          "TH",
          "TN",
          "TR",
          "TW",
          "US",
          "UY",
          "VN",
          "ZA"
        ],
        "external_urls": {
          "spotify": "https://open.spotify.com/album/6rgHTomCOeHeHZFQe6keUr"
        },
        "href": "https://api.spotify.com/v1/albums/6rgHTomCOeHeHZFQe6keUr",
        "id": "6rgHTomCOeHeHZFQe6keUr",
        "images": [
          {
            "height": 640,
            "url": "https://i.scdn.co/image/ab67616d0000b2735a0f1af1a6b2c63ee9e35369",
            "width": 640
          },
          {
            "height": 300,
            "url": "https://i.scdn.co/image/ab67616d00001e025a0f1af1a6b2c63ee9e35369",
            "width": 300
          },
          {
            "height": 64,
            "url": "https://i.scdn.co/image/ab67616d000048515a0f1af1a6b2c63ee9e35369",
            "width": 64
          }
        ],
        "name": "Ilaiyaraaja: Janani",
        "release_date": "2010-01-01",
        "release_date_precision": "day",
        "total_tracks": 29,
        "type": "album",
        "uri": "spotify:album:6rgHTomCOeHeHZFQe6keUr"
      },
      "artists": [
        {
          "external_urls": {
            "spotify": "https://open.spotify.com/artist/2wPsNCwhEGb0KvChZ5DD52"
          },
          "href": "https://api.spotify.com/v1/artists/2wPsNCwhEGb0KvChZ5DD52",
          "id": "2wPsNCwhEGb0KvChZ5DD52",
          "name": "K. J. Yesudas",
          "type": "artist",
          "uri": "spotify:artist:2wPsNCwhEGb0KvChZ5DD52"
        }
      ],
      "available_markets": [
        "AD",
        "AE",
        "AR",
        "AT",
        "AU",
        "BE",
        "BG",
        "BH",
        "BO",
        "BR",
        "CA",
        "CH",
        "CL",
        "CO",
        "CR",
        "CY",
        "CZ",
        "DE",
        "DK",
        "DO",
        "DZ",
        "EC",
        "EE",
        "EG",
        "ES",
        "FI",
        "FR",
        "GB",
        "GR",
        "GT",
        "HK",
        "HN",
        "HU",
        "ID",
        "IE",
        "IL",
        "IS",
        "IT",
        "JO",
        "JP",
        "KW",
        "LB",
        "LI",
        "LT",
        "LU",
        "LV",
        "MA",
        "MC",
        "MT",
        "MX",
        "MY",
        "NI",
        "NL",
        "NO",
        "NZ",
        "OM",
        "PA",
        "PE",
        "PH",
        "PL",
        "PS",
        "PT",
        "PY",
        "QA",
        "RO",
        "SA",
        "SE",
        "SG",
        "SK",
        "SV",
        "TH",
        "TN",
        "TR",
        "TW",
        "US",
        "UY",
        "VN",
        "ZA"
      ],
      "disc_number": 1,
      "duration_ms": 155493,
      "explicit": false,
      "external_ids": {
        "isrc": "uscgj1060130"
      },
      "external_urls": {
        "spotify": "https://open.spotify.com/track/75TjBQ1zUgpueA1fm8tCHP"
      },
      "href": "https://api.spotify.com/v1/tracks/75TjBQ1zUgpueA1fm8tCHP",
      "id": "75TjBQ1zUgpueA1fm8tCHP",
      "is_local": false,
      "name": "Paartha Vizhi",
      "popularity": 25,
      "preview_url": "https://p.scdn.co/mp3-preview/8f5797636a7164a852d9abafe389b119830ec8aa?cid=6f607cdf41e4421ba28cffe59ebeb12c",
      "track_number": 10,
      "type": "track",
      "uri": "spotify:track:75TjBQ1zUgpueA1fm8tCHP"
    },
    {
      "album": {
        "album_type": "SINGLE",
        "artists": [
          {
            "external_urls": {
              "spotify": "https://open.spotify.com/artist/2FgHPfRprDaylrSRVf1UlN"
            },
            "href": "https://api.spotify.com/v1/artists/2FgHPfRprDaylrSRVf1UlN",
            "id": "2FgHPfRprDaylrSRVf1UlN",
            "name": "Thaman S",
            "type": "artist",
            "uri": "spotify:artist:2FgHPfRprDaylrSRVf1UlN"
          },
          {
            "external_urls": {
              "spotify": "https://open.spotify.com/artist/5VAyiDhBinVfc6RM5RKnLa"
            },
            "href": "https://api.spotify.com/v1/artists/5VAyiDhBinVfc6RM5RKnLa",
            "id": "5VAyiDhBinVfc6RM5RKnLa",
            "name": "Sam C.S.",
            "type": "artist",
            "uri": "spotify:artist:5VAyiDhBinVfc6RM5RKnLa"
          }
        ],
        "available_markets": [
          "AD",
          "AE",
          "AR",
          "AT",
          "AU",
          "BE",
          "BG",
          "BH",
          "BO",
          "BR",
          "CA",
          "CH",
          "CL",
          "CO",
          "CR",
          "CY",
          "CZ",
          "DE",
          "DK",
          "DO",
          "DZ",
          "EC",
          "EE",
          "EG",
          "ES",
          "FI",
          "FR",
          "GB",
          "GR",
          "GT",
          "HK",
          "HN",
          "HU",
          "ID",
          "IE",
          "IL",
          "IN",
          "IS",
          "IT",
          "JO",
          "JP",
          "KW",
          "LB",
          "LI",
          "LT",
          "LU",
          "LV",
          "MA",
          "MC",
          "MT",
          "MX",
          "MY",
          "NI",
          "NL",
          "NO",
          "NZ",
          "OM",
          "PA",
          "PE",
          "PH",
          "PL",
          "PS",
          "PT",
          "PY",
          "QA",
          "RO",
          "SA",
          "SE",
          "SG",
          "SK",
          "SV",
          "TH",
          "TN",
          "TR",
          "TW",
          "US",
          "UY",
          "VN",
          "ZA"
        ],
        "external_urls": {
          "spotify": "https://open.spotify.com/album/3xibPOaQf8YZySMfUzgyxz"
        },
        "href": "https://api.spotify.com/v1/albums/3xibPOaQf8YZySMfUzgyxz",
        "id": "3xibPOaQf8YZySMfUzgyxz",
        "images": [
          {
            "height": 640,
            "url": "https://i.scdn.co/image/ab67616d0000b2736c1df0da67d9b543af714044",
            "width": 640
          },
          {
            "height": 300,
            "url": "https://i.scdn.co/image/ab67616d00001e026c1df0da67d9b543af714044",
            "width": 300
          },
          {
            "height": 64,
            "url": "https://i.scdn.co/image/ab67616d000048516c1df0da67d9b543af714044",
            "width": 64
          }
        ],
        "name": "Enemy - Tamil (Original Motion Picture Soundtrack)",
        "release_date": "2021-10-25",
        "release_date_precision": "day",
        "total_tracks": 5,
        "type": "album",
        "uri": "spotify:album:3xibPOaQf8YZySMfUzgyxz"
      },
      "artists": [
        {
          "external_urls": {
            "spotify": "https://open.spotify.com/artist/2FgHPfRprDaylrSRVf1UlN"
          },
          "href": "https://api.spotify.com/v1/artists/2FgHPfRprDaylrSRVf1UlN",
          "id": "2FgHPfRprDaylrSRVf1UlN",
          "name": "Thaman S",
          "type": "artist",
          "uri": "spotify:artist:2FgHPfRprDaylrSRVf1UlN"
        },
        {
          "external_urls": {
            "spotify": "https://open.spotify.com/artist/6bmhUYiasV6rSORgLmHYZ4"
          },
          "href": "https://api.spotify.com/v1/artists/6bmhUYiasV6rSORgLmHYZ4",
          "id": "6bmhUYiasV6rSORgLmHYZ4",
          "name": "Srivardhini",
          "type": "artist",
          "uri": "spotify:artist:6bmhUYiasV6rSORgLmHYZ4"
        },
        {
          "external_urls": {
            "spotify": "https://open.spotify.com/artist/35LFDqRu6EmXgUqEWeh2j6"
          },
          "href": "https://api.spotify.com/v1/artists/35LFDqRu6EmXgUqEWeh2j6",
          "id": "35LFDqRu6EmXgUqEWeh2j6",
          "name": "Aditi Bhavaraju",
          "type": "artist",
          "uri": "spotify:artist:35LFDqRu6EmXgUqEWeh2j6"
        },
        {
          "external_urls": {
            "spotify": "https://open.spotify.com/artist/1GcAgSs5t6sadg2O8efjEu"
          },
          "href": "https://api.spotify.com/v1/artists/1GcAgSs5t6sadg2O8efjEu",
          "id": "1GcAgSs5t6sadg2O8efjEu",
          "name": "Satya Yamini",
          "type": "artist",
          "uri": "spotify:artist:1GcAgSs5t6sadg2O8efjEu"
        },
        {
          "external_urls": {
            "spotify": "https://open.spotify.com/artist/5e7jC00VGhxRpK5f9ahXhX"
          },
          "href": "https://api.spotify.com/v1/artists/5e7jC00VGhxRpK5f9ahXhX",
          "id": "5e7jC00VGhxRpK5f9ahXhX",
          "name": "Roshini JKV",
          "type": "artist",
          "uri": "spotify:artist:5e7jC00VGhxRpK5f9ahXhX"
        },
        {
          "external_urls": {
            "spotify": "https://open.spotify.com/artist/22KTsf5b5SeYNOypXpyYBr"
          },
          "href": "https://api.spotify.com/v1/artists/22KTsf5b5SeYNOypXpyYBr",
          "id": "22KTsf5b5SeYNOypXpyYBr",
          "name": "Tejaswini",
          "type": "artist",
          "uri": "spotify:artist:22KTsf5b5SeYNOypXpyYBr"
        }
      ],
      "available_markets": [
        "AD",
        "AE",
        "AR",
        "AT",
        "AU",
        "BE",
        "BG",
        "BH",
        "BO",
        "BR",
        "CA",
        "CH",
        "CL",
        "CO",
        "CR",
        "CY",
        "CZ",
        "DE",
        "DK",
        "DO",
        "DZ",
        "EC",
        "EE",
        "EG",
        "ES",
        "FI",
        "FR",
        "GB",
        "GR",
        "GT",
        "HK",
        "HN",
        "HU",
        "ID",
        "IE",
        "IL",
        "IN",
        "IS",
        "IT",
        "JO",
        "JP",
        "KW",
        "LB",
        "LI",
        "LT",
        "LU",
        "LV",
        "MA",
        "MC",
        "MT",
        "MX",
        "MY",
        "NI",
        "NL",
        "NO",
        "NZ",
        "OM",
        "PA",
        "PE",
        "PH",
        "PL",
        "PS",
        "PT",
        "PY",
        "QA",
        "RO",
        "SA",
        "SE",
        "SG",
        "SK",
        "SV",
        "TH",
        "TN",
        "TR",
        "TW",
        "US",
        "UY",
        "VN",
        "ZA"
      ],
      "disc_number": 1,
      "duration_ms": 228567,
      "explicit": false,
      "external_ids": {
        "isrc": "IND292102021"
      },
      "external_urls": {
        "spotify": "https://open.spotify.com/track/3xQGfRh1FEqfTGUW3kkea2"
      },
      "href": "https://api.spotify.com/v1/tracks/3xQGfRh1FEqfTGUW3kkea2",
      "id": "3xQGfRh1FEqfTGUW3kkea2",
      "is_local": false,
      "name": "Tum Tum",
      "popularity": 51,
      "preview_url": "https://p.scdn.co/mp3-preview/82ab2f454aa9cc2bebbb95ab7382405426592afe?cid=6f607cdf41e4421ba28cffe59ebeb12c",
      "track_number": 2,
      "type": "track",
      "uri": "spotify:track:3xQGfRh1FEqfTGUW3kkea2"
    }
  ],
  "total": 50,
  "limit": 20,
  "offset": 0,
  "href": "https://api.spotify.com/v1/me/top/tracks",
  "previous": null,
  "next": "https://api.spotify.com/v1/me/top/tracks?limit=20&offset=20"
}